<?xml version="1.0" encoding="utf-8"?>
<!-- Generator: Adobe Illustrator 17.1.0, SVG Export Plug-In . SVG Version: 6.00 Build 0)  -->
<!DOCTYPE svg PUBLIC "-//W3C//DTD SVG 1.1//EN" "http://www.w3.org/Graphics/SVG/1.1/DTD/svg11.dtd">
<svg version="1.1" id="Calque_1" xmlns="http://www.w3.org/2000/svg" xmlns:xlink="http://www.w3.org/1999/xlink" x="0px" y="0px"
	 viewBox="-754.9 -502.2 1540 1024" enable-background="new -754.9 -502.2 1540 1024" xml:space="preserve">
<desc>Created with Sketch.</desc>
<g id="Welcome">
	<g id="HOME_v3" transform="translate(-203.000000, -528.000000)">
		<g id="ACTIONS" transform="translate(0.000000, 508.000000)">
			<g id="entretien-icon" transform="translate(203.000000, 20.000000)">
				<g id="mains">
					<path id="Shape" d="M481.9,69.8c-92.2-105.7-202-190.8-312.6-276c-32.1,26.3-60.2,51.3-90.3,73.4C48-109.4,15.5-88-18.3-68.6
						c-75.1,41.8-163,19.1-208.2-51.6c-23.2-36.3-18.5-79,12.5-108.7c22.3-21.4,44.9-42.2,67.5-63.4c47.4-44.9,94.1-91,142.3-135.2
						l14.6-13.4c2.6-2.3,9.1-6.7,6.4-10.3c-2.7-3.5-10-2.8-14-3.5c-7.2-1.3-14.5-2.6-21.8-3.4c-16.3-1.8-32.7-1.8-48.9,0
						c-31.4,3.7-62.8,7-94.1,11.7c-29.2,4.1-58.1,10.1-86.6,17.9C-341.1-402.3-427-400-511.8-451c-34.4-20.7-56.3-10-73.1,27
						C-631-321.3-677-218.6-722.9-115.8c-4,9.6-7.5,19.5-10.3,29.6c3.5,3.2,7.2,6.2,11.1,8.9l11.4,9.1l22.4,17.8l43.8,34.9
						c26.8,21.9,53.8,43.2,80.4,65.4c2,2,4.5,3.4,7.3,4c3.5,0.4,5.9-2.9,8.1-5l10-10c21-20.5,42.1-40.7,63-61.2l6.3-6.2l5.4-5.4
						c47.8-47.3,113.5-38.6,147.1,20c7.8,13.6,13.5,28.3,20.5,43.1c72-6.5,113,28.6,130.4,92.9c84.1-3.7,112.3,14.4,144.3,92.8
						c10.7,0,22.8-0.6,34.6,0c42.4,2.5,69.9,25.4,83.2,64.9c12.5,36.8,18.5,72.2-19,101.5c-33.6,26.3-64.5,56.3-102.7,90.1
						C40,502.5,77,489,109.6,436.4c6.1-10,18.1-24.6,25.8-23.8c64.6,7.4,99-23,110.1-83.1c113.6-0.3,121.1-4.6,153-88.1
						c42.7,3.7,88.8,10,111.7-39C534.2,152.6,516.2,109.3,481.9,69.8z"/>
					<path id="Shape_1_" d="M-194.4-179.2c5.2-9.4,11.5-18.1,18.6-26.1c81.4-80.2,164.1-159,244.5-240
						c31.7-31.9,67.3-27.1,103.7-18.2c64.6,15.8,128.1,36.3,193.2,49.9s125.1-5,179.1-41.5c28.3-19.1,44.9-15.7,60.3,15.3
						c47.2,94,96.2,187.2,144.7,280.6c22.1,42.5,18.7,47.3-20,78.1C682.7-43.5,638.9-1.7,593.7,38.5c-35.9,31.8-45.2,29.9-80.5-2.1
						c-90.3-81.8-182.1-162-273.6-242.5c-10.1-8-20.9-15-32.2-21.1c-52.9-32.2-51.8-30.8-99.8,9.3C52.4-171.5,2.7-115.3-71.2-95.3
						C-132.9-78.5-194-116.4-194.4-179.2z"/>
					<path id="Shape_2_" d="M-554,195.1L-554,195.1c-23.9-23.5-24.3-61.9-0.9-85.9L-451,3.1c23.5-23.9,61.9-24.3,85.9-0.9l0,0
						c23.9,23.5,24.3,61.9,0.9,85.9l-103.9,106C-491.6,218-530,218.5-554,195.1L-554,195.1z"/>
					<path id="Shape_3_" d="M-423.7,198.9l107.3-109.5c22.6-23,59.5-23.4,82.6-0.9l3.6,3.5c23.1,22.6,23.4,59.6,0.9,82.6
						l-107.2,109.5c-22.6,23.1-59.6,23.4-82.6,0.9l-3.6-3.5C-446,258.9-446.4,221.9-423.7,198.9L-423.7,198.9z"/>
					<path id="Shape_4_" d="M-292,298.9l107.2-109.5c10.8-11.2,25.6-17.5,41.2-17.7s30.5,5.8,41.6,16.7l3.6,3.5
						c23.1,22.6,23.4,59.6,0.9,82.6l-107.4,109.7c-10.9,11.1-25.8,17.4-41.4,17.5c-15.6,0.1-30.5-6-41.6-17l-3.6-3.5
						c-23.1-22.6-23.4-59.6-0.9-82.6L-292,298.9z"/>
					<path id="Shape_5_" d="M-155.3,386.9L-48,277.4c22.6-23.1,59.6-23.4,82.6-0.9l3.6,3.5c23.1,22.6,23.4,59.6,0.9,82.6
						L-68.2,472.2c-22.6,23.1-59.6,23.4-82.6,0.9l-3.6-3.5c-11.1-10.8-17.4-25.6-17.6-41.1C-172.1,412.9-166.1,398-155.3,386.9
						L-155.3,386.9z"/>
				</g>
			</g>
		</g>
	</g>
</g>
</svg>
