<?xml version="1.0" standalone="no"?>
<!DOCTYPE svg PUBLIC "-//W3C//DTD SVG 1.1//EN" "http://www.w3.org/Graphics/SVG/1.1/DTD/svg11.dtd" >
<svg xmlns="http://www.w3.org/2000/svg">
<metadata>Generated by IcoMoon</metadata>
<defs>
<font id="icomoon" horiz-adv-x="1024">
<font-face units-per-em="1024" ascent="960" descent="-64" />
<missing-glyph horiz-adv-x="1024" />
<glyph unicode="&#x20;" horiz-adv-x="512" d="" />
<glyph unicode="&#xe900;" glyph-name="angle" d="M520.9 191.7c-41.6 0-83.1 16.3-114.1 48.6l-396.5 413.4 43.3 41.5 396.5-413.4c37.4-39 99.6-40.3 138.6-2.9l0.1 0.1c1.4 1.3 2.9 2.9 4.5 4.6l376.5 411.1 44.2-40.5-377.1-411.7c-2-2.1-4.3-4.5-6.8-6.9-30.5-29.4-69.8-43.9-109.2-43.9z" />
<glyph unicode="&#xe901;" glyph-name="arrow" d="M650.7 67l-40.5 44.3 318.8 291.2c13.9 12.7 22 30 22.9 48.8s-5.7 36.8-18.4 50.7c-1.8 2-3.7 3.8-5.7 5.6l-317 276.6 39.4 45.2 317.1-276.6c3.7-3.2 7.3-6.7 10.6-10.3 23.5-25.7 35.6-59.1 34-93.9s-16.6-66.9-42.4-90.4l-318.8-291.2zM12 478h729.8v-60h-729.8v60z" />
<glyph unicode="&#xe902;" glyph-name="calendar" d="M912 838h-130v60c0 16.6-13.4 30-30 30s-30-13.4-30-30v-60h-180v60c0 16.6-13.4 30-30 30s-30-13.4-30-30v-60h-180v60c0 16.6-13.4 30-30 30s-30-13.4-30-30v-60h-130c-44.2 0-80-35.8-80-80v-710c0-44.2 35.8-80 80-80h800c44.2 0 80 35.8 80 80v710c0 44.2-35.8 80-80 80zM932 48c0-11-9-20-20-20h-800c-11 0-20 9-20 20v710c0 11 9 20 20 20h130v-60c0-16.6 13.4-30 30-30s30 13.4 30 30v60h180v-60c0-16.6 13.4-30 30-30s30 13.4 30 30v60h180v-60c0-16.6 13.4-30 30-30s30 13.4 30 30v60h130c11 0 20-9 20-20v-710zM242 568h120v-90h-120v90zM242 418h120v-90h-120v90zM242 268h120v-90h-120v90zM452 268h120v-90h-120v90zM452 418h120v-90h-120v90zM452 568h120v-90h-120v90zM662 268h120v-90h-120v90zM662 418h120v-90h-120v90zM662 568h120v-90h-120v90z" />
<glyph unicode="&#xe903;" glyph-name="euro" d="M884.2 150.8c-10.5 23-24.1 29.7-49.2 24.1-32-7.3-63.6-17.1-95.7-23.7-62.2-12.8-124-14-185.6 5.2-76.8 24.1-117.7 79.6-142.9 151.6h208c7.8 0 15.3 3.1 20.8 8.6s8.6 13 8.6 20.8v65.6c0 7.8-3.1 15.3-8.6 20.8s-13 8.6-20.8 8.6h-227.8c0 18.5-0.4 36 0 53.4h227.7c7.8 0 15.3 3.1 20.8 8.6s8.6 13 8.6 20.8v65.7c0 7.8-3.1 15.3-8.6 20.8s-13 8.6-20.8 8.6h-199.5c-0.1 0.7 0.1 1.4 0.4 2.1 23.7 54.4 58.7 98.1 115.9 120.8 66.7 26.2 134.8 25.6 203.3 11.5 32.5-6.6 64.3-16.8 96.7-24.1 23.7-5.2 37.7 1.8 48 23.7 11.9 25.6 22.7 51.7 33.5 77.5 10.1 24.8 4.2 41.9-18.8 55.5-5.8 3.4-11.9 6.3-18.2 8.7-96 37.7-195.2 51.7-297.6 35.2-71.9-11.5-139-36.3-197-81.4-73-56.6-120.5-131.7-148.1-219.3l-3.5-10.1h-102.6c-7.8 0-15.3-3.1-20.8-8.6s-8.6-13-8.6-20.8v-65.7c0-7.8 3.1-15.3 8.6-20.8s13-8.6 20.8-8.6h80.7v-53.4h-80.7c-7.8 0-15.3-3.1-20.8-8.6s-8.6-13-8.6-20.8v-65.5c0-7.8 3.1-15.3 8.6-20.8s13-8.6 20.8-8.6h97.4c7.3-24.1 13.6-48.2 23-71.3 49.2-118.8 131.7-203.6 256-243.8 103-33.5 206.4-32.5 309.8-3.8 27.2 7.4 53.7 17 79.3 28.6 24.4 11.2 30.7 30.4 21 54.1-10.4 26.8-21.6 53-33.5 78.8z" />
<glyph unicode="&#xe904;" glyph-name="handshake" horiz-adv-x="1540" d="M1236.8 388c-92.2 105.7-202 190.8-312.6 276-32.1-26.3-60.2-51.3-90.3-73.4-31-23.4-63.5-44.8-97.3-64.2-75.1-41.8-163-19.1-208.2 51.6-23.2 36.3-18.5 79 12.5 108.7 22.3 21.4 44.9 42.2 67.5 63.4 47.4 44.9 94.1 91 142.3 135.2l14.6 13.4c2.6 2.3 9.1 6.7 6.4 10.3-2.7 3.5-10 2.8-14 3.5-7.2 1.3-14.5 2.6-21.8 3.4-16.3 1.8-32.7 1.8-48.9 0-31.4-3.7-62.8-7-94.1-11.7-29.2-4.1-58.1-10.1-86.6-17.9-92.5-26.2-178.4-28.5-263.2 22.5-34.4 20.7-56.3 10-73.1-27-46.1-102.7-92.1-205.4-138-308.2-4-9.6-7.5-19.5-10.3-29.6 3.5-3.2 7.2-6.2 11.1-8.9l11.4-9.1 22.4-17.8 43.8-34.9c26.8-21.9 53.8-43.2 80.4-65.4 2-2 4.5-3.4 7.3-4 3.5-0.4 5.9 2.9 8.1 5l10 10c21 20.5 42.1 40.7 63 61.2l6.3 6.2 5.4 5.4c47.8 47.3 113.5 38.6 147.1-20 7.8-13.6 13.5-28.3 20.5-43.1 72 6.5 113-28.6 130.4-92.9 84.1 3.7 112.3-14.4 144.3-92.8 10.7 0 22.8 0.6 34.6 0 42.4-2.5 69.9-25.4 83.2-64.9 12.5-36.8 18.5-72.2-19-101.5-33.6-26.3-64.5-56.3-102.7-90.1 65.6-31.1 102.6-17.6 135.2 35 6.1 10 18.1 24.6 25.8 23.8 64.6-7.4 99 23 110.1 83.1 113.6 0.3 121.1 4.6 153 88.1 42.7-3.7 88.8-10 111.7 39 24 49.8 6 93.1-28.3 132.6zM560.5 637c5.2 9.4 11.5 18.1 18.6 26.1 81.4 80.2 164.1 159 244.5 240 31.7 31.9 67.3 27.1 103.7 18.2 64.6-15.8 128.1-36.3 193.2-49.9s125.1 5 179.1 41.5c28.3 19.1 44.9 15.7 60.3-15.3 47.2-94 96.2-187.2 144.7-280.6 22.1-42.5 18.7-47.3-20-78.1-47-37.6-90.8-79.4-136-119.6-35.9-31.8-45.2-29.9-80.5 2.1-90.3 81.8-182.1 162-273.6 242.5-10.1 8-20.9 15-32.2 21.1-52.9 32.2-51.8 30.8-99.8-9.3-55.2-46.4-104.9-102.6-178.8-122.6-61.7-16.8-122.8 21.1-123.2 83.9zM200.9 262.7v0c-23.9 23.5-24.3 61.9-0.9 85.9l103.9 106.1c23.5 23.9 61.9 24.3 85.9 0.9v0c23.9-23.5 24.3-61.9 0.9-85.9l-103.9-106c-23.5-23.9-61.9-24.4-85.9-1v0zM331.2 258.9l107.3 109.5c22.6 23 59.5 23.4 82.6 0.9l3.6-3.5c23.1-22.6 23.4-59.6 0.9-82.6l-107.2-109.5c-22.6-23.1-59.6-23.4-82.6-0.9l-3.6 3.5c-23.3 22.6-23.7 59.6-1 82.6v0zM462.9 158.9l107.2 109.5c10.8 11.2 25.6 17.5 41.2 17.7s30.5-5.8 41.6-16.7l3.6-3.5c23.1-22.6 23.4-59.6 0.9-82.6l-107.4-109.7c-10.9-11.1-25.8-17.4-41.4-17.5s-30.5 6-41.6 17l-3.6 3.5c-23.1 22.6-23.4 59.6-0.9 82.6l0.4-0.3zM599.6 70.9l107.3 109.5c22.6 23.1 59.6 23.4 82.6 0.9l3.6-3.5c23.1-22.6 23.4-59.6 0.9-82.6l-107.3-109.6c-22.6-23.1-59.6-23.4-82.6-0.9l-3.6 3.5c-11.1 10.8-17.4 25.6-17.6 41.1-0.1 15.6 5.9 30.5 16.7 41.6v0z" />
<glyph unicode="&#xe905;" glyph-name="home" d="M976.2 524.8l-429.1 375.4c-20.3 17-49.9 16.7-69.8-0.8l-430.5-394.7c-9.1-8.3-14.5-19.9-14.9-32.3-0.4-12.3 4.2-24.3 12.8-33.2l10.8-11.2c17.9-18.6 46.9-20.9 64.6-5l32.2 28.8v-421.9c0-25.9 21-46.8 46.8-46.8h167.8c25.9 0 46.8 21 46.8 46.8v295.3h214.1v-295.2c-0.4-25.9 18.1-46.8 44-46.8h177.9c25.9 0 46.8 21 46.8 46.8v416.1l19.8-17.4c10.9-9.6 33.9-1.9 51.2 17.3l12.2 13.4c8.3 9.1 12.7 21.2 12 33.5-0.6 12.3-6.2 23.8-15.5 31.9v0z" />
<glyph unicode="&#xe906;" glyph-name="menu" d="M512 928c-265.1 0-480-214.9-480-480s214.9-480 480-480 480 214.9 480 480c0.4 127.4-50.1 249.7-140.2 339.8s-212.4 140.6-339.8 140.2zM773.8 251.6c0.4-5.9-1.8-11.7-6-15.8-4.2-4.2-9.9-6.4-15.8-6h-480c-5.9-0.4-11.7 1.8-15.8 6s-6.4 9.9-6 15.8v43.6c-0.4 5.9 1.8 11.7 6 15.8s9.9 6.4 15.8 6h480c5.9 0.4 11.7-1.8 15.8-6 4.2-4.2 6.4-9.9 6-15.8v-43.6zM773.8 426.2c0.4-5.9-1.8-11.7-6-15.8-4.2-4.2-9.9-6.4-15.8-6h-480c-5.9-0.4-11.7 1.8-15.8 6s-6.4 9.9-6 15.8v43.6c-0.4 5.9 1.8 11.7 6 15.8s9.9 6.4 15.8 6h480c5.9 0.4 11.7-1.8 15.8-6 4.2-4.2 6.4-9.9 6-15.8v-43.6zM773.8 600.8c0.4-5.9-1.8-11.7-6-15.8-4.2-4.2-9.9-6.4-15.8-6h-480c-5.9-0.4-11.7 1.8-15.8 6s-6.4 9.9-6 15.8v43.6c-0.4 5.9 1.8 11.7 6 15.8s9.9 6.4 15.8 6h480c5.9 0.4 11.7-1.8 15.8-6 4.2-4.2 6.4-9.9 6-15.8v-43.6z" />
<glyph unicode="&#xe907;" glyph-name="reminder" d="M938.4 871.8h-181.5v27.9c0 15.6-12.4 28.3-27.7 28.3s-27.7-12.7-27.7-28.3v-27.9h-161.8v27.9c0 15.6-12.4 28.3-27.7 28.3s-27.7-12.7-27.7-28.3v-27.9h-154.9v27.9c0 15.6-12.4 28.3-27.7 28.3s-27.7-12.7-27.7-28.3v-27.9h-188.4c-15.3 0-27.7-12.7-27.7-28.3v-639.4c0-15.6 12.4-28.3 27.7-28.3h170c27.2-118.9 131.8-207.8 256.4-207.8s229.2 88.9 256.4 207.8h170c15.3 0 27.7 12.7 27.7 28.3v639.4c0 15.6-12.4 28.3-27.7 28.3zM273.9 815.2v-25.6c0-15.6 12.4-28.3 27.7-28.3s27.7 12.7 27.7 28.3v25.6h154.9v-25.6c0-15.6 12.4-28.3 27.7-28.3s27.7 12.7 27.7 28.3v25.6h161.9v-25.6c0-15.6 12.4-28.3 27.7-28.3s27.7 12.7 27.7 28.3v25.6h153.8v-115.7h-797.4v115.7h160.6zM512 24.6c-114.7 0-208 95.3-208 212.5s93.3 212.5 208 212.5 208-95.3 208-212.5-93.3-212.5-208-212.5zM775.2 232.4c0 1.6 0.1 3.1 0.1 4.7 0.1 148.4-118.1 269.1-263.3 269.1s-263.4-120.7-263.4-269.1c0-1.6 0.1-3.1 0.1-4.7h-135.4v410.5h797.4v-410.5h-135.5zM539.7 230v136.9c0 15.6-12.4 28.3-27.7 28.3s-27.7-12.7-27.7-28.3v-148.6c0-7.5 2.9-14.7 8.1-20l63.7-65c5.4-5.5 12.5-8.3 19.6-8.3s14.2 2.8 19.6 8.3c10.8 11.1 10.8 29 0 40l-55.6 56.7zM104.1 831.8h817.8v-144.3h-817.8v144.3z" />
<glyph unicode="&#xe908;" glyph-name="user" d="M482.51 480.5c103.6 0 187.4 100.6 187.4 225.2 0 124.3-27.6 225.2-187.4 225.2s-187.4-100.6-187.4-225.2c0-124.5 83.8-225.2 187.4-225.2zM870.889-1.593c0-3.8-3.1-6.9-6.9-6.9h-278.2c-3.8 0-7 3.1-7 6.9v244.1c0 3.8 3.1 6.9 7 6.9h45.2v-20.6c0-5.7 4.7-10.3 10.4-10.3 5.8 0 10.4 4.6 10.4 10.3v20.6h62.7v-20.6c0-5.7 4.7-10.3 10.4-10.3 5.8 0 10.4 4.6 10.4 10.3v20.6h62.6v-20.6c0-5.7 4.7-10.3 10.4-10.3 5.8 0 10.4 4.6 10.4 10.3v20.6h45.2c3.8 0 6.9-3.1 6.9-6.9v-244.1zM863.989 270.007h-45.2v20.6c0 5.7-4.7 10.3-10.4 10.3-5.8 0-10.4-4.6-10.4-10.3v-20.6h-62.6v20.6c0 5.7-4.7 10.3-10.4 10.3-5.8 0-10.4-4.6-10.4-10.3v-20.6h-62.6v20.6c0 5.7-4.7 10.3-10.4 10.3-5.8 0-10.4-4.6-10.4-10.3v-20.6h-45.4c-15.4 0-27.8-12.3-27.8-27.5v-244.1c0-15.2 12.5-27.5 27.8-27.5h278.2c15.4 0 27.8 12.3 27.8 27.5v244.1c0 15.2-12.5 27.5-27.8 27.5v0zM631 156.6h41.7v30.9h-41.7zM631 105h41.7v31h-41.7zM631 53.4h41.7v31h-41.7zM704 53.4h41.7v31h-41.7zM704 105h41.7v31h-41.7zM704 156.6h41.7v30.9h-41.7zM777 53.4h41.8v31h-41.8zM777 105h41.8v31h-41.8zM777 156.6h41.8v30.9h-41.8zM547.7 323.5l266.8-3.1c-25.4 86.3-82.7 116.5-229.6 142.7 0 0-30.7-39-102.7-39s-102.7 39-102.7 39c-216.5-38.7-246.6-99.5-250.6-310.2-0.3-17.2-0.6-18.1-0.6-16.3v-22.7c0 0 52.1-104 354-104 21.4 0 41.5 0.5 60.4 1.5l5 312.1z" />
</font></defs></svg>